building 0 0 0 278.0 6.0 312.0 139.0 0 0 0 0 0 0 0
building 0 0 0 326.0 14.0 411.0 134.0 0 0 0 0 0 0 0
building 0 0 0 536.0 13.0 622.0 134.0 0 0 0 0 0 0 0
building 0 0 0 636.0 21.0 719.0 134.0 0 0 0 0 0 0 0
building 0 0 0 739.0 0.0 824.0 136.0 0 0 0 0 0 0 0
building 0 0 0 318.0 311.0 394.0 317.0 0 0 0 0 0 0 0
building 0 0 0 453.0 312.0 507.0 321.0 0 0 0 0 0 0 0
building 0 0 0 530.0 313.0 604.0 325.0 0 0 0 0 0 0 0
building 0 0 0 638.0 309.0 707.0 328.0 0 0 0 0 0 0 0
building 0 0 0 737.0 319.0 806.0 332.0 0 0 0 0 0 0 0
building 0 0 0 430.0 0.0 526.0 139.0 0 0 0 0 0 0 0
building 0 0 0 1086.0 326.0 1204.0 346.0 0 0 0 0 0 0 0
building 0 0 0 1221.0 326.0 1280.0 349.0 0 0 0 0 0 0 0
building 0 0 0 1078.0 22.0 1181.0 134.0 0 0 0 0 0 0 0
building 0 0 0 1200.0 0.0 1280.0 128.0 0 0 0 0 0 0 0
